\relax 
\@writefile{toc}{\contentsline {paragraph}{Problem 1 (10 points)}{1}}
\@writefile{toc}{\contentsline {paragraph}{Problem 2 (10 points)}{1}}
\@writefile{toc}{\contentsline {paragraph}{Problem 3 (10 points)}{1}}
\@writefile{toc}{\contentsline {paragraph}{Problem 4 (20 points)}{1}}
\@writefile{toc}{\contentsline {paragraph}{Problem 5 - bonus question (10 points)}{1}}
